{
  "iisSettings": {
    "windowsAuthentication": false,
    "anonymousAuthentication": true,
    "iis": {
      "applicationUrl": "http://localhost/WebApplication12",
      "sslPort": 0
    },
    "iisExpress": {
      "applicationUrl": "http://localhost:51909/",
      "sslPort": 44349
    }
  },
  "profiles": {
    "IIS Express": {
      "commandName": "IISExpress",
      "launchBrowser": true,
      "launchUrl": "https://localhost:44349/",
      "environmentVariables": {
        "ASPNETCORE_ENVIRONMENT": "Development"
      }
    },
    "WebApplication12": {
      "commandName": "IIS",
      "launchBrowser": true,
      "environmentVariables": {
        "ASPNETCORE_ENVIRONMENT": "Development"
      },
      "applicationUrl": "http://localhost:51910/"
    },
    "admin": {
      "commandName": "IIS",
      "environmentVariables": {
        "Ключ": "Значение"
      }
    },
    "petrol": {
      "commandName": "IIS"
    }
  }
}